{
   "@context":"https://www.w3.org/2018/credentials/v1",
   "@id":"http://example.org/VerifiablePresentations/5",
   "type":"VerifiablePresentation",
   "verifiableCredential":{
      "@context":"https://www.w3.org/2018/credentials/v1",
      "@id":"https://www.example.org/VerifiableCredentials/5",
      "@type":"VerifiableCredential",
      "issuanceDate":"2023-12-12T14:24:17Z",
      "issuer":"https://www.uk-koeln.de/",
      "credentialSubject":{
         "@context":{
            "xsd":"http://www.w3.org/2001/XMLSchema#",
            "gax-trust-framework":"https://w3id.org/gaia-x/gax-trust-framework#",
            "vcard":"http://www.w3.org/2006/vcard/ns#",
            "gax-participant":"http://w3id.org/gaia-x/participant#"
         },
         "@id":"did:web:registry.gaia-x.eu:LegalPerson:N2enPeBQqvoXG5i1K5O61UgwuOQYyaYB5ZHt",
         "@type":"gax-trust-framework:LegalPerson",
         "gax-trust-framework:legalName":{
            "@value":"Universitätsklinikum Köln",
            "@type":"xsd:string"
         },
         "gax-trust-framework:legalForm":"Nonprofit corporation",
         "gax-trust-framework:description":{
            "@value":"Universitätsklinikum Köln (University Hospital Cologne) is a reference center that offers a wide range of new diagnostic and treatment options to patients. The Institute for Biomedical Informatics at the University of Cologne works in different research areas in the healthcare field",
            "@type":"xsd:string"
         },
         "gax-trust-framework:registrationNumber":{
            "@value":"Not Applicable",
            "@type":"xsd:string"
         },
         "gax-trust-framework:legalAddress":{
            "@type":"vcard:Address",
            "vcard:country-name":{
               "@value":"DE",
               "@type":"xsd:string"
            },
            "vcard:street-address":{
               "@value":"Kerpener Str. 62",
               "@type":"xsd:string"
            },
            "vcard:postal-code":{
               "@value":"50937",
               "@type":"xsd:string"
            },
            "vcard:locality":{
               "@value":"Köln",
               "@type":"xsd:string"
            }
         },
         "gax-trust-framework:headquarterAddress":{
            "@type":"vcard:Address",
            "vcard:country-name":{
               "@value":"DE",
               "@type":"xsd:string"
            }
         },
         "gax-trust-framework:leiCode":{
            "@value":"391200G88ELU0V3SBI83",
            "@type":"xsd:string"
         },
         "gax-participant:hasWebAddress":{
            "@value":"https://www.uk-koeln.de/",
            "@type":"xsd:anyURI"
         },
         "gax-participant:hasIndividualContactLegal":[
            {
               "@type":"vcard:Agent",
               "vcard:given-name":"Oya",
               "vcard:family-name":"Beyan",
               "vcard:hasEmail":{
                  "@id":"mailto:oya.beyan@uk-koeln.de"
               }
            },
            {
               "@type":"vcard:Agent",
               "vcard:given-name":"Mehrshad",
               "vcard:family-name":"Jaberansary",
               "vcard:hasEmail":{
                  "@id":"mailto:mehrshad.jaberansary@uk-koeln.de"
               }
            }
         ],
         "gax-participant:hasIndividualContactTechnical":[
            {
               "@type":"vcard:Agent",
               "vcard:given-name":"Oya",
               "vcard:family-name":"Beyan",
               "vcard:hasEmail":{
                  "@id":"mailto:oya.beyan@uk-koeln.de"
               }
            },
            {
               "@type":"vcard:Agent",
               "vcard:given-name":"Mehrshad",
               "vcard:family-name":"Jaberansary",
               "vcard:hasEmail":{
                  "@id":"mailto:mehrshad.jaberansary@uk-koeln.de"
               }
            }
         ]
      }
   }
}