{
    "@id": "http://example.org/VerifiablePresentations/19",
    "proof": {
        "created": "2023-12-20T14:52:48Z",
        "jws": "eyJiNjQiOmZhbHNlLCJjcml0IjpbImI2NCJdLCJhbGciOiJQUzI1NiJ9..BuQjyzhpW8sbcW98-xOa1doWykppU0Tr3J0SObZfsc7jD87TG0I2IS4paOOrJiGZV_SSaaL4nnl213Ox-MsFXtRxW3GrV6mZbRXy8frHIHWWqMw3cLPIlyamVrgbSdHAjd5jhCdveyFrrFOH8201p8YpVZNZQ6daPs8zCGDpFBbJkUfoprUaeKJ90c2N62oGz6iN676C_eJ_LAZQHqlmIXijhgLKlzK2TwwSxbztUEwIshWOsELDBilQhY_WqH1mJB39KiUOG9D2Rq9LwGs8flXX4KqfdlLL1byxDDTmv0XVfvVrHJg_MKfnb-slpZv9HTfpdWGICeetEHIL9gJSyv8Vj85iZvP9luhdfZhS1wcrn3WwaRDNXVfvhBlXPCw30larzkdX_6WlJrWLkDeIKAXsRqC0outiitig55QwXlZaBm_Y9kOtdYHF9DL3mJsvV3EcDntUe2MKPcYjoCck_ilmkZGnedTfyYvDvhkNLD3YZRkRpjsYX3gRP_kVPpoogPeMR7PEjgRB-_9Z9pk8pMZ_GNK8Kqy0wWR7v82VBbqQsHrbGFZp8xYuzKDsJ0aaI8DXxJrrSQ3s1arrrBt5470rX8Pn7W2SbiTLhXwLENfSiVAKl0m-cGquKF01ef1cpjcnakrBvPks07t7Dbsb1N_G_PtUTpx5N5BtHFxO6i4",
        "proofPurpose": "assertionMethod",
        "type": "JsonWebSignature2020",
        "verificationMethod": "did:web:compliance.lab.gaia-x.eu"
    },
    "type": "VerifiablePresentation",
    "@context": "https://www.w3.org/2018/credentials/v1",
    "verifiableCredential": {
        "issuanceDate": "2023-12-19T18:20:13Z",
        "credentialSubject": {
            "gax-trust-framework:policy": {
                "@value": "Not available",
                "@type": "xsd:string"
            },
            "gax-trust-framework:provisionType": {
                "@value": "Public Cloud",
                "@type": "xsd:string"
            },
            "dcat:keyword": [
                {
                    "@value": "Container",
                    "@type": "xsd:string"
                },
                {
                    "@value": "Kubernetes",
                    "@type": "xsd:string"
                },
                {
                    "@value": "Autoscale",
                    "@type": "xsd:string"
                }
            ],
            "@type": "gax-trust-framework:ServiceOffering",
            "gax-trust-framework:name": {
                "@value": "Cloud Container Engine",
                "@type": "xsd:string"
            },
            "gax-trust-framework:providedBy": {"@id": "did:web:registry.gaia-x.eu:LegalPerson:sjA09eWkrcczhWijcz90T4jyE4qQd51McPK8"},
            "@context": {
                "schema": "http://schema.org/",
                "gax-service": "http://w3id.org/gaia-x/service#",
                "dct": "http://purl.org/dc/terms/",
                "gax-trust-framework": "https://w3id.org/gaia-x/gax-trust-framework#",
                "rdf": "http://www.w3.org/1999/02/22-rdf-syntax-ns#",
                "xsd": "http://www.w3.org/2001/XMLSchema#",
                "rdfs": "http://www.w3.org/2000/01/rdf-schema#",
                "dcat": "http://www.w3.org/ns/dcat#",
                "gax-core": "https://w3id.org/gaia-x/core#"
            },
            "gax-trust-framework:termsAndConditions": {
                "gax-trust-framework:content": {
                    "@value": "www.example.com/not-available",
                    "@type": "xsd:anyURI"
                },
                "@type": "gax-trust-framework:TermsAndConditions",
                "gax-trust-framework:hash": {
                    "@value": "1234",
                    "@type": "xsd:string"
                }
            },
            "gax-trust-framework:dataAccountExport": {
                "gax-trust-framework:formatType": {
                    "@value": "application/vnd.oci.image.manifest.v1+json",
                    "@type": "xsd:string"
                },
                "@type": "gax-trust-framework:DataAccountExport",
                "gax-trust-framework:accessType": {
                    "@value": "digital",
                    "@type": "xsd:string"
                },
                "gax-trust-framework:requestType": {
                    "@value": "webform",
                    "@type": "xsd:string"
                }
            },
            "gax-service:hasServiceModel": "PaaS",
            "gax-core:offeredBy": {"@id": "did:web:registry.gaia-x.eu:LegalPerson:sjA09eWkrcczhWijcz90T4jyE4qQd51McPK8"},
            "dct:description": {
                "@value": "SimpleVM streamlines the launch of single Virtual Machines (VMs). It takes care of the network setup, SSH access and other tasks like e.g., volume mounts and provides the user with quick access to the machine. Once you have configured your VM to your liking e.g., by installing software, it can be shared simply by creating a snapshot and providing this snapshot to other users.",
                "@type": "xsd:string"
            },
            "@id": "did:web:registry.gaia-x.eu:ServiceOffering:UZdGHJmvxzq0VZwDiP6DCBUnfiSg98qPckPU",
            "gax-service:hasWebAddress": {
                "@value": "https://docs.otc.t-systems.com/cce/index.html",
                "@type": "xsd:anyURI"
            }
        },
        "@type": "VerifiableCredential",
        "@id": "https://www.example.org/VerifiableCredentials/19",
        "proof": {
            "created": "2023-12-20T14:52:47Z",
            "jws": "eyJiNjQiOmZhbHNlLCJjcml0IjpbImI2NCJdLCJhbGciOiJQUzI1NiJ9..vG2cGlGre9N6b3jMyRWyIJt4M6m46UNR2LnwmzXciKNTu25O9HeGUa1WZppPEjM1jfRjgmFrr4m7PKrxrCFiQmyPWu0r-C2CR1t_UhzkvzkVwTn2kG-n_UYcDSF1ysx9si-Awrhx1W8o3wk4RxiSbKFH4yYd-8WIUsc_OFxE_XaAkzW1Om4GgcZ1o04qUuWmH9caEquloCZr95-VeqgU_wfuMJx1EvikYbMqe86RQuQKI7R64_g8e7qJCfqhJWlLgctvnQvbSpQAXNbswEk3N4BoZmNCgZwGWm7kPrdTSahJznNKogVo6iu9AzTa8STv2XOO93IVxTZC9RNYJ9V0d4eg0lAiLSRC5lJw-9dIBOrjIKzb1PBOPJoz9ON7HVqYAh0G9qb6Y7SZAt5-xW5rW751UVrwXlOABAJ-NgKFl2WAxP_a-1lbU9DkPXKgi4Evfe7UP0mh-s2kWQNYxHVgxmPf81KsZtO_0azwWh7VND1pcRsnn0MA09jiuZKkx6Fzap3yBcX06e-yqjnCeYWqEXonfYTyqoq9eHJoHY-ahyAuHAlqNOSiFyD45D2iDtIk5ULYVRGgbIRQWlOY7n9Pqmd13fcy0wSmWk-w4TigurJ9e0UIBrQW_Iexdh4Wk3GOa4erDPEEU_u2eTlzG6gvRgPfsygXeP_9IDYlc988Vjs",
            "proofPurpose": "assertionMethod",
            "type": "JsonWebSignature2020",
            "verificationMethod": "did:web:compliance.lab.gaia-x.eu"
        },
        "@context": "https://www.w3.org/2018/credentials/v1",
        "issuer": "https://www.t-systems.com/"
    }
}