{
    "@id": "http://example.org/VerifiablePresentations/5",
    "proof": {
        "created": "2023-12-20T14:52:19Z",
        "jws": "eyJiNjQiOmZhbHNlLCJjcml0IjpbImI2NCJdLCJhbGciOiJQUzI1NiJ9..Q5aDEC40EMlta8ejORJqmEe4p0gG9geKMJMifVECQtMuLn-f-jbaK9q7pr3honqrp9TNG85T2IMVi4oEqmTxcycpxCf7BqHFKI3cb0DS5TH47I36zCAYxLZEgYramMyIIWKGcP_F7nNgKkUClvvb-C0_baDLxsWgDqSgd_OKArfHrEQpcseFsEEJJKKgZkJhTeTa2E8UoJK79s4pICbnLmalvuP_vANTdxfud-4SpKO5pagLW_R8LIpOBccLPiIFWkxdEXDHzSTQSOEUwvTvdAahL0JXae7cjqI8dGcG4Cz3Rasx7TycL7z4UfaxeR6yxW2S98kyvX4KrLNvAt4kUw1cinO74BPCjhMmkNDaon1-dqxrKp3QPB66oCdHR4QLJLoGxAgShzFVg1n1dTAmAyHKUcxAEJ9fXmcb2-C9RvEvMXmvy9bc_nrd9VUySMwAV7lVa7kvhWP7-hgRhvDW5EdFy9ohBhpiicF0u2Fo_RkV8f0b919jSolijpWzjaCD0K7rjDM7EFbKMYA360VK8pqqNJiudXqF3eMA-0DPSrjWhgVKCVvvZDSPd-Mg1VHIhwAdgCCs-cSA-OkhV_EyZhGbR47G_qIRHyg8mX3dprccXMBfaWpmwDxaALq2AZBvSfAw7E9fP6jttoTb0uMHAHlIt4ONTQRI8Jp-3TDa9Fo",
        "proofPurpose": "assertionMethod",
        "type": "JsonWebSignature2020",
        "verificationMethod": "did:web:compliance.lab.gaia-x.eu"
    },
    "type": "VerifiablePresentation",
    "@context": "https://www.w3.org/2018/credentials/v1",
    "verifiableCredential": {
        "issuanceDate": "2023-12-12T14:24:17Z",
        "credentialSubject": {
            "gax-trust-framework:headquarterAddress": {
                "vcard:country-name": {
                    "@value": "DE",
                    "@type": "xsd:string"
                },
                "@type": "vcard:Address"
            },
            "@type": "gax-trust-framework:LegalPerson",
            "gax-trust-framework:leiCode": {
                "@value": "391200G88ELU0V3SBI83",
                "@type": "xsd:string"
            },
            "gax-trust-framework:legalAddress": {
                "vcard:country-name": {
                    "@value": "DE",
                    "@type": "xsd:string"
                },
                "@type": "vcard:Address",
                "vcard:street-address": {
                    "@value": "Kerpener Str. 62",
                    "@type": "xsd:string"
                },
                "vcard:postal-code": {
                    "@value": "50937",
                    "@type": "xsd:string"
                },
                "vcard:locality": {
                    "@value": "Köln",
                    "@type": "xsd:string"
                }
            },
            "gax-participant:hasIndividualContactLegal": [
                {
                    "vcard:given-name": "Oya",
                    "vcard:family-name": "Beyan",
                    "vcard:hasEmail": {"@id": "mailto:oya.beyan@uk-koeln.de"},
                    "@type": "vcard:Agent"
                },
                {
                    "vcard:given-name": "Mehrshad",
                    "vcard:family-name": "Jaberansary",
                    "vcard:hasEmail": {"@id": "mailto:mehrshad.jaberansary@uk-koeln.de"},
                    "@type": "vcard:Agent"
                }
            ],
            "@context": {
                "gax-participant": "http://w3id.org/gaia-x/participant#",
                "gax-trust-framework": "https://w3id.org/gaia-x/gax-trust-framework#",
                "xsd": "http://www.w3.org/2001/XMLSchema#",
                "vcard": "http://www.w3.org/2006/vcard/ns#"
            },
            "gax-trust-framework:legalForm": "Nonprofit corporation",
            "gax-trust-framework:registrationNumber": {
                "@value": "Not Applicable",
                "@type": "xsd:string"
            },
            "gax-trust-framework:description": {
                "@value": "Universitätsklinikum Köln (University Hospital Cologne) is a reference center that offers a wide range of new diagnostic and treatment options to patients. The Institute for Biomedical Informatics at the University of Cologne works in different research areas in the healthcare field",
                "@type": "xsd:string"
            },
            "gax-trust-framework:legalName": {
                "@value": "Universitätsklinikum Köln",
                "@type": "xsd:string"
            },
            "gax-participant:hasWebAddress": {
                "@value": "https://www.uk-koeln.de/",
                "@type": "xsd:anyURI"
            },
            "gax-participant:hasIndividualContactTechnical": [
                {
                    "vcard:given-name": "Oya",
                    "vcard:family-name": "Beyan",
                    "vcard:hasEmail": {"@id": "mailto:oya.beyan@uk-koeln.de"},
                    "@type": "vcard:Agent"
                },
                {
                    "vcard:given-name": "Mehrshad",
                    "vcard:family-name": "Jaberansary",
                    "vcard:hasEmail": {"@id": "mailto:mehrshad.jaberansary@uk-koeln.de"},
                    "@type": "vcard:Agent"
                }
            ],
            "@id": "did:web:registry.gaia-x.eu:LegalPerson:N2enPeBQqvoXG5i1K5O61UgwuOQYyaYB5ZHt"
        },
        "@type": "VerifiableCredential",
        "@id": "https://www.example.org/VerifiableCredentials/5",
        "proof": {
            "created": "2023-12-20T14:52:18Z",
            "jws": "eyJiNjQiOmZhbHNlLCJjcml0IjpbImI2NCJdLCJhbGciOiJQUzI1NiJ9..ztGbw31p3_dU5amONQnFmAy3WiWIgiuV7uZtoSc9RCOJxhBiWT24OxiJHF1W1eMEHDqOMTZYnvcp4cBhWqwe16xoIg64KTxiaTN51okom8qrNdALcEiy_uV3PUJtcvbZNeMjeMfIXqc9xIomwTlxvWO2zrjl80WZBYPy4HIJFk-Y7b7O34MrwG6XYpUfdenBKkTsHSMRJS98IDU_6GugROurkM6Zuscbuo5Jknor9k_VNb7d4mOf9BW_HreCDYo1iXtsUtZj44G-_l1ZwYPE0oeUbcAg-4b2eLz08uMLy1pwHUY8Th0AB_KOBWEKiamZuII0bmFg2FMbEuGpjOg7mq67NbjYoOhz3hHRAbKtHFsD6IrVz7r3LMlGaArSTFSHcvtCueiG4x1bHEVzDIvNYocr9ffWNrPRn2DWY2wax2NlPbWqQ_malFk0VzHzyruDe4-Ul5iirvOC-xxQ2Pi9aZgt7qSkkNo-1K6FWJgsTjsXj0OUXUr0dMEinydaE8knErTp6TUKlR8_HRKY5bVzImvE20HkEnNaFMJu6WeTkhQKTNgLVRRoJw221vNE9oQi1cNBMEPfSp7BveohL_23mPWmusXMofw6HCRctFS3fBPN-41y6_u4Yfq0hktV4uGBqlQ1D6ZJylGDR13mnJhDbfbTkzEItW_gCdZ4pDQ3eGQ",
            "proofPurpose": "assertionMethod",
            "type": "JsonWebSignature2020",
            "verificationMethod": "did:web:compliance.lab.gaia-x.eu"
        },
        "@context": "https://www.w3.org/2018/credentials/v1",
        "issuer": "https://www.uk-koeln.de/"
    }
}