{
   "@context":"https://www.w3.org/2018/credentials/v1",
   "@id":"http://example.org/VerifiablePresentations/21",
   "type":"VerifiablePresentation",
   "verifiableCredential":{
      "@context":"https://www.w3.org/2018/credentials/v1",
      "@id":"https://www.example.org/VerifiableCredentials/21",
      "@type":"VerifiableCredential",
      "issuanceDate":"2023-12-19T20:46:42Z",
      "issuer":"https://www.rwth-aachen.de",
      "credentialSubject":{
         "@context":{
            "schema":"http://schema.org/",
            "xsd":"http://www.w3.org/2001/XMLSchema#",
            "gax-core":"https://w3id.org/gaia-x/core#",
            "dct":"http://purl.org/dc/terms/",
            "gax-trust-framework":"https://w3id.org/gaia-x/gax-trust-framework#",
            "rdf":"http://www.w3.org/1999/02/22-rdf-syntax-ns#",
            "dcat":"http://www.w3.org/ns/dcat#",
            "gax-service":"http://w3id.org/gaia-x/service#",
            "rdfs":"http://www.w3.org/2000/01/rdf-schema#"
         },
         "@id":"did:web:registry.gaia-x.eu:ServiceOffering:Ba6ug3Ijqa11OC73gwGsbZBJZJ-dxQOifZoP",
         "@type":"gax-trust-framework:ServiceOffering",
         "gax-core:offeredBy":{
            "@id":"did:web:registry.gaia-x.eu:LegalPerson:q3mHmmr7CStJWvm7j9ajMPJ1wTkKoAKNWnEy"
         },
         "gax-trust-framework:name":{
            "@value":"GitLab Runner Service",
            "@type":"xsd:string"
         },
         "gax-trust-framework:termsAndConditions":{
            "@type":"gax-trust-framework:TermsAndConditions",
            "gax-trust-framework:content":{
               "@value":"www.example.com/not-available",
               "@type":"xsd:anyURI"
            },
            "gax-trust-framework:hash":{
               "@value":"1234",
               "@type":"xsd:string"
            }
         },
         "gax-trust-framework:policy":{
            "@value":"Not available",
            "@type":"xsd:string"
         },
         "gax-trust-framework:dataAccountExport":{
            "@type":"gax-trust-framework:DataAccountExport",
            "gax-trust-framework:requestType":{
               "@value":"API",
               "@type":"xsd:string"
            },
            "gax-trust-framework:accessType":{
               "@value":"digital",
               "@type":"xsd:string"
            },
            "gax-trust-framework:formatType":{
               "@value":"multipart/mixed,application/vnd.oci.image.manifest.v1+json",
               "@type":"xsd:string"
            }
         },
         "dct:description":{
            "@value":"The service offers to run CI workflows defined in GitLab repositories.",
            "@type":"xsd:string"
         },
         "dcat:keyword":[
            {
               "@value":"Analytics",
               "@type":"xsd:string"
            },
            {
               "@value":"Workflow",
               "@type":"xsd:string"
            },
            {
               "@value":"Deployment",
               "@type":"xsd:string"
            },
            {
               "@value":"Container",
               "@type":"xsd:string"
            }
         ],
         "gax-trust-framework:provisionType":{
            "@value":"Public Cloud",
            "@type":"xsd:string"
         },
         "gax-trust-framework:providedBy":{
            "@id":"did:web:registry.gaia-x.eu:LegalPerson:q3mHmmr7CStJWvm7j9ajMPJ1wTkKoAKNWnEy"
         },
         "gax-service:hasServiceModel":"SaaS",
         "gax-service:consumes":{
            "@type":"gax-service:ApiDescription",
            "dct:description":"Git Repositories containing a .gitlab-ci.yml",
            "gax-service:hasContentType":"multipart/mixed",
            "rdfs:comment":"Git Repositories"
         },
         "gax-service:hasWebAddress":{
            "@value":"https://git.rwth-aachen.de",
            "@type":"xsd:anyURI"
         },
         "gax-service:produces":[
            {
               "@type":"gax-service:ApiDescription",
               "dct:description":"The service returns build artifacts defined in the workflow definition",
               "gax-service:hasContentType":"multipart/mixed",
               "rdfs:comment":"Build Artifacts"
            },
            {
               "@type":"gax-service:ApiDescription",
               "dct:description":"The service runs build steps as containers using a kubernetes compatible container engine",
               "gax-service:hasContentType":"pplication/vnd.oci.image.manifest.v1+json",
               "rdfs:comment":"Workflow Steps"
            }
         ],
         "gax-service:hasDeploymentDetails":{
            "gax-service:requires":{
               "gax-service:hasApiType":"KUBERNETES"
            }
         }
      }
   }
}